Chapter 4 Animal initial conditions and weekly weights | Connect R to Microsoft Teams
…
  our_mouse_weights$latest_cage[our_mouse_weights$notch_id == this_notch_id & 
                       our_mouse_weights$existing_cage_number %in% 
                       this_cage_list] <- latest_cage
}

# Add a label for each mouse based on its notch_id and latest cage
our_mouse_weights <- our_mouse_weights %>% 
  mutate(mouse_label = paste("Cage:", latest_cage, 
                             "Notch:", notch_id))

our_mouse_weights

## # A tibble: 980 × 12
##    who_collected date_collected notch_id weight unit  existing_cage_number
##    <chr>         <date>         <chr>     <dbl> <chr> <chr>               
##  1 Taru          2022-05-26     0          18.4 g     22003               
##  2 Taru          2022-05-26     1R         17.2 g     22003               
##  3 Taru          2022-05-26     1L         17   g     22003               
##  4 Taru          2022-05-26     1R1L       18.8 g     22003               
##  5 Taru          2022-05-26     0          18.4 g     22004               
##  6 Taru          2022-05-26     1R         17.7 g     22004               
##  7 Taru          2022-05-26     1L         20.2 g     22004               
##  8 Taru          2022-05-26     1R1L       17.1 g     22004               
##  9 Taru          2022-05-26     0          17.6 g     22005               
## 10 Taru          2022-05-26     1R         20   g     22005               
## # … with 970 more rows, and 6 more variables: new_cage_number <chr>,
## #   group <chr>, notes <chr>, mouse_id <int>, latest_cage <chr>,
## #   mouse_label <chr>
…
