Chapter 4 Colony forming units to determine bacterial counts | ImpactTB/BAA: Standard Operating Procedures for Data Analysis
…
First, the workflow loads some additional R libraries. You may need to install
these on your local R session if you do not already have them installed.

Next, the pipeline reads in the organ-specific data. To do this, it creates a
list of all of the sheets that are in the spreadsheet other than the metadata
sheet. It then loops through each of these organ-specific sheets. It uses
pivoting to convert all the dilution levels and values into two columns
(a longer rather than wider format), so that the data from all the organs can
be joined into a single large dataframe, even if a different number of dilutions
were used for the different organs.

## [[1]]
## # A tibble: 880 × 10
##    count_date      who_plated who_counted group mouse day   sex   organ dilution
##    <chr>           <chr>      <chr>       <chr> <chr> <chr> <chr> <chr>    <dbl>
##  1 "\"Dec 28 2023… FL         FL          BCG   1     14    fema… lung         0
##  2 "\"Dec 28 2023… FL         FL          BCG   1     14    fema… lung         1
##  3 "\"Dec 28 2023… FL         FL          BCG   1     14    fema… lung         2
##  4 "\"Dec 28 2023… FL         FL          BCG   1     14    fema… lung         3
##  5 "\"Dec 28 2023… FL         FL          BCG   1     14    fema… lung         4
##  6 "\"Dec 28 2023… FL         FL          BCG   1     14    fema… lung         5
##  7 "\"Dec 28 2023… FL         FL          BCG   1     14    fema… lung         6
##  8 "\"Dec 28 2023… FL         FL          BCG   1     14    fema… lung         7
##  9 "\"Dec 28 2023… FL         FL          BCG   1     14    fema… lung         8
## 10 "\"Dec 28 2023… FL         FL          BCG   1     14    fema… lung         9
## # ℹ 870 more rows
## # ℹ 1 more variable: CFUs <chr>
## 
## [[2]]
## # A tibble: 870 × 10
##    count_date      who_plated who_counted group mouse day   sex   organ dilution
##    <chr>           <chr>      <chr>       <chr> <chr> <chr> <chr> <chr>    <dbl>
##  1 "\"Dec 28 2023… FL         FL          BCG   1     14    fema… sple…        0
##  2 "\"Dec 28 2023… FL         FL          BCG   1     14    fema… sple…        1
##  3 "\"Dec 28 2023… FL         FL          BCG   1     14    fema… sple…        2
##  4 "\"Dec 28 2023… FL         FL          BCG   1     14    fema… sple…        3
##  5 "\"Dec 28 2023… FL         FL          BCG   1     14    fema… sple…        4
##  6 "\"Dec 28 2023… FL         FL          BCG   1     14    fema… sple…        5
##  7 "\"Dec 28 2023… FL         FL          BCG   1     14    fema… sple…        6
##  8 "\"Dec 28 2023… FL         FL          BCG   1     14    fema… sple…        7
##  9 "\"Dec 28 2023… FL         FL          BCG   1     14    fema… sple…        8
## 10 "\"Dec 28 2023… FL         FL          BCG   1     14    fema… sple…        9
## # ℹ 860 more rows
## # ℹ 1 more variable: CFUs <chr>
…
You can see that, rather than having separate columns for each dilution level
on a single row for a sample, there are now multiple rows per sample, with the
CFUs at different dilutions given in a CFUs column, with the dilution column
identifying which dilution level for each.

The next steps work through the data, identifying which dilution is an
appropriate one to use to count CFUs for each sample.

## # A tibble: 171 × 10
##    count_date      who_plated who_counted group mouse day   sex   organ dilution
##    <chr>           <chr>      <chr>       <fct> <chr> <chr> <chr> <chr>    <dbl>
##  1 "\"Dec 28 2023… FL         FL          Sali… 1     14    fema… lung         2
##  2 "\"Feb 28 2023… FL         FL          Sali… 1     56    fema… lung         2
##  3 "\"Mar 22 24\"" FL         FL          Sali… 1     90    fema… lung         3
##  4 "\"Dec 28 2023… FL         FL          Sali… 1     14    male  lung         3
##  5 "\"Feb 28 2023… FL         FL          Sali… 1     56    male  lung         2
##  6 "\"Mar 22 24\"" FL         FL          Sali… 1     90    male  lung         3
##  7 "\"Dec 28 2023… FL         FL          Sali… 1     14    fema… sple…        0
##  8 "\"Feb 28 2023… FL         FL          Sali… 1     56    fema… sple…        2
##  9 "\"Mar 22 24\"" FL         FL          Sali… 1     90    fema… sple…        2
## 10 "\"Dec 28 2023… FL         FL          Sali… 1     14    male  sple…        1
## # ℹ 161 more rows
## # ℹ 1 more variable: CFUs <dbl>
…
## # A tibble: 5 × 10
##   count_date who_plated who_counted group mouse day   sex   organ dilution  CFUs
##   <chr>      <chr>      <chr>       <fct> <chr> <chr> <chr> <chr>    <dbl> <dbl>
## 1 "\"Dec 28… FL         FL          Sali… 1     14    fema… lung         2    61
## 2 "\"Feb 28… FL         FL          Sali… 1     56    fema… lung         2    55
## 3 "\"Mar 22… FL         FL          Sali… 1     90    fema… lung         3     4
## 4 "\"Dec 28… FL         FL          Sali… 1     14    male  lung         3    41
## 5 "\"Feb 28… FL         FL          Sali… 1     56    male  lung         2    85

Next, the code brings in the information from the metadata sheet, including data on
what percent of each organ was resuspended, the dilution factor, and so on.
It uses this information to take the CFU value at a given dilution and convert
it to an estimate of CFUs per mL.

## # A tibble: 171 × 11
##    organ count_date      day   who_plated who_counted group sex   mouse dilution
##    <chr> <chr>           <chr> <chr>      <chr>       <fct> <chr> <chr>    <dbl>
##  1 lung  "\"Dec 28 2023… 14    FL         FL          Sali… fema… 1            2
##  2 lung  "\"Feb 28 2023… 56    FL         FL          Sali… fema… 1            2
##  3 lung  "\"Mar 22 24\"" 90    FL         FL          Sali… fema… 1            3
##  4 lung  "\"Dec 28 2023… 14    FL         FL          Sali… male  1            3
##  5 lung  "\"Feb 28 2023… 56    FL         FL          Sali… male  1            2
##  6 lung  "\"Mar 22 24\"" 90    FL         FL          Sali… male  1            3
##  7 lung  "\"Dec 28 2023… 14    FL         FL          Sali… fema… 2            3
##  8 lung  "\"Feb 28 2023… 56    FL         FL          Sali… fema… 2            2
##  9 lung  "\"Mar 22 24\"" 90    FL         FL          Sali… fema… 2            3
## 10 lung  "\"Dec 28 2023… 14    FL         FL          Sali… male  2            3
## # ℹ 161 more rows
## # ℹ 2 more variables: CFUs <dbl>, CFUs_whole <dbl>

## # A tibble: 171 × 11
##    organ count_date      day   who_plated who_counted group sex   mouse dilution
##    <chr> <chr>           <chr> <chr>      <chr>       <fct> <chr> <chr>    <dbl>
##  1 lung  "\"Dec 28 2023… 14    FL         FL          Sali… fema… 1            2
##  2 lung  "\"Feb 28 2023… 56    FL         FL          Sali… fema… 1            2
##  3 lung  "\"Mar 22 24\"" 90    FL         FL          Sali… fema… 1            3
##  4 lung  "\"Dec 28 2023… 14    FL         FL          Sali… male  1            3
##  5 lung  "\"Feb 28 2023… 56    FL         FL          Sali… male  1            2
##  6 lung  "\"Mar 22 24\"" 90    FL         FL          Sali… male  1            3
##  7 lung  "\"Dec 28 2023… 14    FL         FL          Sali… fema… 2            3
##  8 lung  "\"Feb 28 2023… 56    FL         FL          Sali… fema… 2            2
##  9 lung  "\"Mar 22 24\"" 90    FL         FL          Sali… fema… 2            3
## 10 lung  "\"Dec 28 2023… 14    FL         FL          Sali… male  2            3
## # ℹ 161 more rows
## # ℹ 2 more variables: CFUs <dbl>, CFUs_whole <dbl>
…
