Chapter 6 Enzyme-linked immunosorbest assay (ELISA) | ImpactTB/BAA: Standard Operating Procedures for Data Analysis
…
6.4 Use the the data analysis models in our data

The presented data is from a mouse study. In this data, presence of IgG antibody has been evaluated against receptor binding domain (RBD) of SARS-CoV-2 virus in two different groups of mice. We need to elucidate which group has higher concentration of the antibodies.

6.4.1 read in the data

elisa_data <- read_excel("DATA/elisa_data_serial_dilution.xlsx")

6.4.2 make the tidy data

elisa_data <- pivot_longer(data = elisa_data, cols = "Mouse_1":"Mouse_5", names_to = "mouse_id", values_to = "absorbance")

elisa_data

## # A tibble: 100 × 4
##    Groups  Dilution mouse_id absorbance
##    <chr>   <chr>    <chr>         <dbl>
##  1 Group 1 1/50     Mouse_1         4.1
##  2 Group 1 1/50     Mouse_2         3.9
##  3 Group 1 1/50     Mouse_3         4.3
##  4 Group 1 1/50     Mouse_4         4.2
##  5 Group 1 1/50     Mouse_5         4  
##  6 Group 1 1/100    Mouse_1         3.9
##  7 Group 1 1/100    Mouse_2         3.8
##  8 Group 1 1/100    Mouse_3         3.6
##  9 Group 1 1/100    Mouse_4         3.7
## 10 Group 1 1/100    Mouse_5         3.8
## # … with 90 more rows
…
# converting data into dataframe

elisa_data_df <- elisa_data %>% 
  group_by(Groups, mouse_id) %>% 
  summarize(log_dilution = log_dilution, absorbance = absorbance)

## `summarise()` has grouped output by 'Groups', 'mouse_id'. You can override using
## the `.groups` argument.

elisa_data_df

## # A tibble: 100 × 4
## # Groups:   Groups, mouse_id [10]
##    Groups  mouse_id log_dilution absorbance
##    <chr>   <chr>           <dbl>      <dbl>
##  1 Group 1 Mouse_1         -5.64       4.1 
##  2 Group 1 Mouse_1         -6.64       3.9 
##  3 Group 1 Mouse_1         -7.64       3.42
##  4 Group 1 Mouse_1         -8.64       2.89
##  5 Group 1 Mouse_1         -9.64       2.12
##  6 Group 1 Mouse_1        -10.6        1.89
##  7 Group 1 Mouse_1        -11.6        0.97
##  8 Group 1 Mouse_1        -12.6        0.52
##  9 Group 1 Mouse_1        -13.6        0.26
## 10 Group 1 Mouse_1        -14.6        0.12
## # … with 90 more rows
…
