Chapter 7 Flow cytometry | ImpactTB/BAA: Standard Operating Procedures for Data Analysis
…
7.4 Making the data tidy for plotting

tidy_Df1 <- pivot_longer(data = Df1, cols =  starts_with("CD45+"), names_to = "cell_types", values_to = "percentage_of_CD45") 

tidy_Df1 <- tidy_Df1 %>%
  separate(col = "SAMPLE", into = c("day", "replicate"))

tidy_Df1 %>%
  select(cell_types) %>%
  unique()

## # A tibble: 128 × 1
##    cell_types                          
##    <chr>                               
##  1 "CD45+ "                            
##  2 "CD45+ CD3-   CD11b+ "              
##  3 "CD45+ CD3-   CD11b+ CD25+ "        
##  4 "CD45+ CD3-   CD11b+ CD103+ "       
##  5 "CD45+ CD3-   CD11b+ gamma_delta "  
##  6 "CD45+ CD3-   CD11b+ NKp46+ "       
##  7 "CD45+ CD3-   CD11b+ CD11c+  CD64- "
##  8 "CD45+ CD3-   CD11b+ CD11c-  CD64- "
##  9 "CD45+ CD3-   CD11b+ CD86-  CD64+ " 
## 10 "CD45+ CD3-   CD11b+ CD86+  CD64+ " 
## # … with 118 more rows
…
