Chapter 4 Mouse Weights | ImpactTB/BAA: Standard Operating Procedures for Data Analysis
…
ex <- add_latest_mouse_id(ex)

ex %>% 
  mutate(mouse_id = case_when(
    # Only create for the first time point, otherwise set to NA
    date_collected != first(date_collected) ~ NA_character_,
    # If the new cage number is missing, it means the animal did not 
    # change cages, so you can use the existing cage number
    is.na(new_cage_number) ~ paste(existing_cage_number, notch_id, sep = "-"),
    TRUE ~ paste(new_cage_number, notch_id, sep = "-")
  ))

## # A tibble: 980 × 14
##    who_collected date_collected sex   dob        notch_id mouse_number weight
##    <chr>         <date>         <fct> <date>     <chr>           <dbl>  <dbl>
##  1 Taru          2022-05-26     f     2022-04-05 0                   1   18.4
##  2 Taru          2022-05-26     f     2022-04-05 1R                  2   17.2
##  3 Taru          2022-05-26     f     2022-04-05 1L                  3   17  
##  4 Taru          2022-05-26     f     2022-04-05 1R1L                4   18.8
##  5 Taru          2022-05-26     f     2022-04-05 0                   1   18.4
##  6 Taru          2022-05-26     f     2022-04-05 1R                  2   17.7
##  7 Taru          2022-05-26     f     2022-04-05 1L                  3   20.2
##  8 Taru          2022-05-26     f     2022-04-05 1R1L                4   17.1
##  9 Taru          2022-05-26     f     2022-04-05 0                   1   17.6
## 10 Taru          2022-05-26     f     2022-04-05 1R                  2   20  
## # … with 970 more rows, and 7 more variables: unit <chr>,
## #   existing_cage_number <chr>, new_cage_number <chr>, group <chr>,
## #   notes <chr>, current_cage <chr>, mouse_id <chr>
…
  mouse_weight_data <- mouse_weight_data %>%
  mutate(mouse_id = case_when(
    # Only create for the first time point, otherwise set to NA
    date_collected != first(date_collected) ~ NA_character_,
    # If the new cage number is missing, it means the animal did not 
    # change cages, so you can use the existing cage number
    is.na(new_cage_number) ~ paste(existing_cage_number, notch_id, sep = "-"),
    TRUE ~ paste(new_cage_number, notch_id, sep = "-")
  ))
  return(mouse_weight_data)
}

add_latest_mouse_id(ex)

## # A tibble: 980 × 14
##    who_collected date_collected sex   dob        notch_id mouse_number weight
##    <chr>         <date>         <fct> <date>     <chr>           <dbl>  <dbl>
##  1 Taru          2022-05-26     f     2022-04-05 0                   1   18.4
##  2 Taru          2022-05-26     f     2022-04-05 1R                  2   17.2
##  3 Taru          2022-05-26     f     2022-04-05 1L                  3   17  
##  4 Taru          2022-05-26     f     2022-04-05 1R1L                4   18.8
##  5 Taru          2022-05-26     f     2022-04-05 0                   1   18.4
##  6 Taru          2022-05-26     f     2022-04-05 1R                  2   17.7
##  7 Taru          2022-05-26     f     2022-04-05 1L                  3   20.2
##  8 Taru          2022-05-26     f     2022-04-05 1R1L                4   17.1
##  9 Taru          2022-05-26     f     2022-04-05 0                   1   17.6
## 10 Taru          2022-05-26     f     2022-04-05 1R                  2   20  
## # … with 970 more rows, and 7 more variables: unit <chr>,
## #   existing_cage_number <chr>, new_cage_number <chr>, group <chr>,
## #   notes <chr>, current_cage <chr>, mouse_id <chr>
…
for(i in 1:length(mouse_cage_histories)) {
  ex <- add_one_mouse_id(latest_mouse_id = names(mouse_cage_histories)[i], 
                         cage_history = mouse_cage_histories[[i]], 
                         mouse_weight_data = ex) 
}

ex

## # A tibble: 980 × 14
##    who_collected date_collected sex   dob        notch_id mouse_number weight
##    <chr>         <date>         <fct> <date>     <chr>           <dbl>  <dbl>
##  1 Taru          2022-05-26     f     2022-04-05 0                   1   18.4
##  2 Taru          2022-05-26     f     2022-04-05 1R                  2   17.2
##  3 Taru          2022-05-26     f     2022-04-05 1L                  3   17  
##  4 Taru          2022-05-26     f     2022-04-05 1R1L                4   18.8
##  5 Taru          2022-05-26     f     2022-04-05 0                   1   18.4
##  6 Taru          2022-05-26     f     2022-04-05 1R                  2   17.7
##  7 Taru          2022-05-26     f     2022-04-05 1L                  3   20.2
##  8 Taru          2022-05-26     f     2022-04-05 1R1L                4   17.1
##  9 Taru          2022-05-26     f     2022-04-05 0                   1   17.6
## 10 Taru          2022-05-26     f     2022-04-05 1R                  2   20  
## # … with 970 more rows, and 7 more variables: unit <chr>,
## #   existing_cage_number <chr>, new_cage_number <chr>, group <chr>,
## #   notes <chr>, current_cage <chr>, mouse_id <chr>
…
