Chapter 8 Proteomics | ImpactTB/BAA: Standard Operating Procedures for Data Analysis
…
prot_a <- read_csv("DATA/Transition Results_CCTSI_A.csv")

## Rows: 3393 Columns: 18
## ── Column specification ────────────────────────────────────────────────────────
## Delimiter: ","
## chr  (7): Peptide, Protein, Replicate, Fragment Ion, Ratio Dot Product, Tota...
## dbl (11): Precursor Mz, Precursor Charge, Product Mz, Product Charge, Retent...
## 
## ℹ Use `spec()` to retrieve the full column specification for this data.
## ℹ Specify the column types or set `show_col_types = FALSE` to quiet this message.

prot_a

## # A tibble: 3,393 × 18
##    Peptide     Protein Replicate   `Precursor Mz` `Precursor Char…` `Product Mz`
##    <chr>       <chr>   <chr>                <dbl>             <dbl>        <dbl>
##  1 QELDEISTNIR Cfp10   091322_LT1            659.                 2        1061.
##  2 QELDEISTNIR Cfp10   091322_LT2            659.                 2        1061.
##  3 QELDEISTNIR Cfp10   091322_LT3            659.                 2        1061.
##  4 QELDEISTNIR Cfp10   091322_LT4            659.                 2        1061.
##  5 QELDEISTNIR Cfp10   091322_LT5            659.                 2        1061.
##  6 QELDEISTNIR Cfp10   091322_LT6            659.                 2        1061.
##  7 QELDEISTNIR Cfp10   091322_LT7            659.                 2        1061.
##  8 QELDEISTNIR Cfp10   091322_LT8            659.                 2        1061.
##  9 QELDEISTNIR Cfp10   091322_LT10           659.                 2        1061.
## 10 QELDEISTNIR Cfp10   091322_LT11           659.                 2        1061.
## # … with 3,383 more rows, and 12 more variables: `Product Charge` <dbl>,
## #   `Fragment Ion` <chr>, `Retention Time` <dbl>, Area <dbl>, Background <dbl>,
## #   `Peak Rank` <dbl>, `Ratio Dot Product` <chr>,
## #   `Total Area Normalized` <chr>, `Total Area Ratio` <chr>,
## #   `Library Dot Product` <dbl>, RatioLightToHeavy <dbl>,
## #   DotProductLightToHeavy <dbl>
…
